\relax 
\providecommand\babel@aux[2]{}
\@nameuse{bbl@beforestart}
\catcode `"\active 
\catcode `-\active 
\providecommand\hyper@newdestlabel[2]{}
\providecommand\HyperFirstAtBeginDocument{\AtBeginDocument}
\HyperFirstAtBeginDocument{\ifx\hyper@anchor\@undefined
\global\let\oldnewlabel\newlabel
\gdef\newlabel#1#2{\newlabelxx{#1}#2}
\gdef\newlabelxx#1#2#3#4#5#6{\oldnewlabel{#1}{{#2}{#3}}}
\AtEndDocument{\ifx\hyper@anchor\@undefined
\let\newlabel\oldnewlabel
\fi}
\fi}
\global\let\hyper@last\relax 
\gdef\HyperFirstAtBeginDocument#1{#1}
\providecommand\HyField@AuxAddToFields[1]{}
\providecommand\HyField@AuxAddToCoFields[2]{}
\babel@aux{czech}{}
\@writefile{toc}{\thispagestyle {toc}}
\@writefile{toc}{\contentsline {chapter}{\numberline {1}Úvod a cíl práce}{1}{chapter.1}\protected@file@percent }
\@writefile{lof}{\addvspace {10\p@ }}
\@writefile{lot}{\addvspace {10\p@ }}
\@writefile{toc}{\contentsline {section}{\numberline {1.1}Cíle}{1}{section.1.1}\protected@file@percent }
\@writefile{toc}{\contentsline {section}{\numberline {1.2}Srovnání Fibonacciho haldy s binární haldou (amortizovaně)}{1}{section.1.2}\protected@file@percent }
\@writefile{toc}{\contentsline {chapter}{\numberline {2}Průběh tvoření}{2}{chapter.2}\protected@file@percent }
\@writefile{lof}{\addvspace {10\p@ }}
\@writefile{lot}{\addvspace {10\p@ }}
\@writefile{toc}{\contentsline {section}{\numberline {2.1}Na co jsem si dával pozor}{2}{section.2.1}\protected@file@percent }
\@writefile{toc}{\contentsline {section}{\numberline {2.2}Unit testy}{2}{section.2.2}\protected@file@percent }
\@writefile{toc}{\contentsline {section}{\numberline {2.3}Generický typ}{2}{section.2.3}\protected@file@percent }
\@writefile{toc}{\contentsline {section}{\numberline {2.4}Make list a make heap}{3}{section.2.4}\protected@file@percent }
\@writefile{toc}{\contentsline {chapter}{\numberline {3}Složitosti operací}{4}{chapter.3}\protected@file@percent }
\@writefile{lof}{\addvspace {10\p@ }}
\@writefile{lot}{\addvspace {10\p@ }}
\@writefile{toc}{\contentsline {section}{\numberline {3.1}Double circular linked list}{4}{section.3.1}\protected@file@percent }
\@writefile{toc}{\contentsline {subsection}{\numberline {3.1.1}Make list}{4}{subsection.3.1.1}\protected@file@percent }
\@writefile{toc}{\contentsline {subsection}{\numberline {3.1.2}Merge}{4}{subsection.3.1.2}\protected@file@percent }
\@writefile{toc}{\contentsline {subsection}{\numberline {3.1.3}Delete node}{4}{subsection.3.1.3}\protected@file@percent }
\@writefile{toc}{\contentsline {subsection}{\numberline {3.1.4}Add first}{4}{subsection.3.1.4}\protected@file@percent }
\@writefile{toc}{\contentsline {subsection}{\numberline {3.1.5}Add last}{4}{subsection.3.1.5}\protected@file@percent }
\@writefile{toc}{\contentsline {subsection}{\numberline {3.1.6}Print list}{4}{subsection.3.1.6}\protected@file@percent }
\@writefile{toc}{\contentsline {section}{\numberline {3.2}Fibonacciho halda}{5}{section.3.2}\protected@file@percent }
\@writefile{toc}{\contentsline {subsection}{\numberline {3.2.1}Lemma, $1+\displaystyle \DOTSB \sum@ \slimits@ F_i = F_{n+2}$}{5}{subsection.3.2.1}\protected@file@percent }
\@writefile{toc}{\contentsline {subsection}{\numberline {3.2.2}Lemma, rychlost růstu Fibonacciho čísel}{5}{subsection.3.2.2}\protected@file@percent }
\@writefile{toc}{\contentsline {subsection}{\numberline {3.2.3}Definice (podstromu)}{6}{subsection.3.2.3}\protected@file@percent }
\@writefile{toc}{\contentsline {subsection}{\numberline {3.2.4}Věta}{6}{subsection.3.2.4}\protected@file@percent }
\@writefile{toc}{\contentsline {section}{\numberline {3.3}Amortizovaná časová složitost Fibonacciho haldy}{7}{section.3.3}\protected@file@percent }
\@writefile{toc}{\contentsline {subsection}{\numberline {3.3.1}Definice (potenciálu)}{7}{subsection.3.3.1}\protected@file@percent }
\@writefile{toc}{\contentsline {subsection}{\numberline {3.3.2}Definice (amortizované složitosti)}{8}{subsection.3.3.2}\protected@file@percent }
\@writefile{toc}{\contentsline {subsection}{\numberline {3.3.3}Náš potenciál}{8}{subsection.3.3.3}\protected@file@percent }
\@writefile{toc}{\contentsline {subsection}{\numberline {3.3.4}Make heap}{8}{subsection.3.3.4}\protected@file@percent }
\@writefile{toc}{\contentsline {subsection}{\numberline {3.3.5}Insert}{8}{subsection.3.3.5}\protected@file@percent }
\@writefile{toc}{\contentsline {subsection}{\numberline {3.3.6}Min value}{8}{subsection.3.3.6}\protected@file@percent }
\@writefile{toc}{\contentsline {subsection}{\numberline {3.3.7}Merge heap}{9}{subsection.3.3.7}\protected@file@percent }
\@writefile{toc}{\contentsline {subsection}{\numberline {3.3.8}Print heap}{9}{subsection.3.3.8}\protected@file@percent }
\@writefile{toc}{\contentsline {subsection}{\numberline {3.3.9}Lemma, opakovaně extract min}{9}{subsection.3.3.9}\protected@file@percent }
\@writefile{toc}{\contentsline {subsection}{\numberline {3.3.10}Lemma, opakovaně operace cut}{10}{subsection.3.3.10}\protected@file@percent }
\@writefile{toc}{\contentsline {subsection}{\numberline {3.3.11}Jak z operace cut plyne složitost decrease a delete}{10}{subsection.3.3.11}\protected@file@percent }
\@writefile{toc}{\contentsline {chapter}{\numberline {4}Závěr}{11}{chapter.4}\protected@file@percent }
\@writefile{lof}{\addvspace {10\p@ }}
\@writefile{lot}{\addvspace {10\p@ }}
\@writefile{toc}{\contentsline {section}{\numberline {4.1}Splnění cílů}{11}{section.4.1}\protected@file@percent }
\@writefile{toc}{\contentsline {section}{\numberline {4.2}Jak mě práce bavila}{11}{section.4.2}\protected@file@percent }
\@writefile{toc}{\contentsline {chapter}{\numberline {5}Zdroje}{12}{chapter.5}\protected@file@percent }
\@writefile{lof}{\addvspace {10\p@ }}
\@writefile{lot}{\addvspace {10\p@ }}
\gdef \@abspage@last{14}
